{ggxmean}
…
---

count: false

.panel1-ols-auto[

```r
*palmerpenguins::penguins
```
]
 
.panel2-ols-auto[

```
# A tibble: 344 x 8
   species island bill_length_mm bill_depth_mm flipper_length_… body_mass_g
   <fct>   <fct>           <dbl>         <dbl>            <int>       <int>
 1 Adelie  Torge…           39.1          18.7              181        3750
 2 Adelie  Torge…           39.5          17.4              186        3800
 3 Adelie  Torge…           40.3          18                195        3250
 4 Adelie  Torge…           NA            NA                 NA          NA
 5 Adelie  Torge…           36.7          19.3              193        3450
 6 Adelie  Torge…           39.3          20.6              190        3650
 7 Adelie  Torge…           38.9          17.8              181        3625
 8 Adelie  Torge…           39.2          19.6              195        4675
 9 Adelie  Torge…           34.1          18.1              193        3475
10 Adelie  Torge…           42            20.2              190        4250
# … with 334 more rows, and 2 more variables: sex <fct>, year <int>
```
…
---
count: false

.panel1-ols-auto[

```r
palmerpenguins::penguins %>%
* filter(species == "Chinstrap")
```
]
 
.panel2-ols-auto[

```
# A tibble: 68 x 8
   species island bill_length_mm bill_depth_mm flipper_length_… body_mass_g
   <fct>   <fct>           <dbl>         <dbl>            <int>       <int>
 1 Chinst… Dream            46.5          17.9              192        3500
 2 Chinst… Dream            50            19.5              196        3900
 3 Chinst… Dream            51.3          19.2              193        3650
 4 Chinst… Dream            45.4          18.7              188        3525
 5 Chinst… Dream            52.7          19.8              197        3725
 6 Chinst… Dream            45.2          17.8              198        3950
 7 Chinst… Dream            46.1          18.2              178        3250
 8 Chinst… Dream            51.3          18.2              197        3750
 9 Chinst… Dream            46            18.9              195        4150
10 Chinst… Dream            51.3          19.9              198        3700
# … with 58 more rows, and 2 more variables: sex <fct>, year <int>
```
…
.panel1-ols-auto[

```r
palmerpenguins::penguins %>%
  filter(species == "Chinstrap") %>%
* filter(sex == "male")
```
]
 
.panel2-ols-auto[

```
# A tibble: 34 x 8
   species island bill_length_mm bill_depth_mm flipper_length_… body_mass_g
   <fct>   <fct>           <dbl>         <dbl>            <int>       <int>
 1 Chinst… Dream            50            19.5              196        3900
 2 Chinst… Dream            51.3          19.2              193        3650
 3 Chinst… Dream            52.7          19.8              197        3725
 4 Chinst… Dream            51.3          18.2              197        3750
 5 Chinst… Dream            51.3          19.9              198        3700
 6 Chinst… Dream            51.7          20.3              194        3775
 7 Chinst… Dream            52            18.1              201        4050
 8 Chinst… Dream            50.5          19.6              201        4050
 9 Chinst… Dream            50.3          20                197        3300
10 Chinst… Dream            49.2          18.2              195        4400
# … with 24 more rows, and 2 more variables: sex <fct>, year <int>
```
…
.panel1-ols-auto[

```r
palmerpenguins::penguins %>%
  filter(species == "Chinstrap") %>%
  filter(sex == "male") %>%
* mutate(id = row_number())
```
]
 
.panel2-ols-auto[

```
# A tibble: 34 x 9
   species island bill_length_mm bill_depth_mm flipper_length_… body_mass_g
   <fct>   <fct>           <dbl>         <dbl>            <int>       <int>
 1 Chinst… Dream            50            19.5              196        3900
 2 Chinst… Dream            51.3          19.2              193        3650
 3 Chinst… Dream            52.7          19.8              197        3725
 4 Chinst… Dream            51.3          18.2              197        3750
 5 Chinst… Dream            51.3          19.9              198        3700
 6 Chinst… Dream            51.7          20.3              194        3775
 7 Chinst… Dream            52            18.1              201        4050
 8 Chinst… Dream            50.5          19.6              201        4050
 9 Chinst… Dream            50.3          20                197        3300
10 Chinst… Dream            49.2          18.2              195        4400
# … with 24 more rows, and 3 more variables: sex <fct>, year <int>, id <int>
```
…
